{
    "name": "BIT-HDTV",
    "url": "https://www.bit-hdtv.com/",
    "upload_form": "https://www.bit-hdtv.com/takeupload.php",
    "torrents_search": "https://api.bit-hdtv.com/torrent/search/advanced",
    "source": "BIT-HDTV",
    "platform": "BIT-HDTV",
    "bbcode_line_break": "\n",
    "title_separator": ".",

    "description_components":{
        "quote_code":"[quote][/quote]"
    },

    "technical_jargons": {
        "authentication_mode": "API_KEY_PAYLOAD",
        "response_type": "JSON",
        "auth_payload_key":"api_key",
        "payload_type": "MULTI-PART"
    },

    "translation": {
        "dot_torrent": "file",
        "torrent_title": "name",
        "mediainfo": "mediainfo",
        "bdinfo" : "mediainfo",
        "type": "cat",
        "source": "source",
        "hybrid_type":"subcat",
        "resolution": "resolution",
        "shameless_self_promotion" : "sdescr",
        "mediainfo_summary" : "descr",
        "bbcode_thumb_nothumb": "screen",
        "imdb": "url",
        "tvmaze": "url",
        "nfo_file": "nfo"
    },
    "hybrid_mappings":{
        "subcat":{
            "required": true,
            "prerequisite": [
                "cat",
                "source"
            ],
            "mapping": {
                "1": {
                    "cat": {
                        "data_source": "tracker",
                        "values": ["7"]
                    },
                    "source": {
                        "data_source": "tracker",
                        "values": ["3"]
                    },
                    "video_codec": {
                        "data_source": "torrent",
                        "values": [
                            "x264", "H264", "h264",
                            "x.264", "H.264", "h.264",
                            "x 264", "H 264", "h 264", "AVC"
                        ]
                    }
                },
                "43": {
                    "cat": {
                        "data_source": "tracker",
                        "values": ["7"]
                    },
                    "source": {
                        "data_source": "tracker",
                        "values": ["3"]
                    },
                    "video_codec": {
                        "data_source": "torrent",
                        "values": [
                            "x265", "H265", "h265",
                            "x.265", "H.265", "h.265",
                            "x 265", "H 265", "h 265", "HEVC"
                        ]
                    }
                },
                "2": {
                    "cat": {
                        "data_source": "tracker",
                        "values": ["7"]
                    },
                    "source": {
                        "data_source": "tracker",
                        "values": ["2"]
                    },
                    "video_codec": {
                        "data_source": "torrent",
                        "values": ["AVC"]
                    }
                },
                "48": {
                    "cat": {
                        "data_source": "tracker",
                        "values": ["7"]
                    },
                    "source": {
                        "data_source": "tracker",
                        "values": ["2"]
                    },
                    "video_codec": {
                        "data_source": "torrent",
                        "values": ["HEVC"]
                    }
                },
                "3": {
                    "cat": {
                        "data_source": "tracker",
                        "values": ["7"]
                    },
                    "source": {
                        "data_source": "tracker",
                        "values": ["1"]
                    }
                },
                "5": {
                    "cat": {
                        "data_source": "tracker",
                        "values": ["7"]
                    },
                    "source": {
                        "data_source": "tracker",
                        "values": ["4", "5"]
                    }
                },
                "6": {
                    "cat": {
                        "data_source": "tracker",
                        "values": ["7"]
                    },
                    "source": {
                        "data_source": "tracker",
                        "values": ["6"]
                    }
                },
                "7": {
                    "cat": {
                        "data_source": "tracker",
                        "values": ["10"]
                    },
                    "source": {
                        "data_source": "tracker",
                        "values": ["6"]
                    }
                },
                "8": {
                    "cat": {
                        "data_source": "tracker",
                        "values": ["10"]
                    },
                    "source": {
                        "data_source": "tracker",
                        "values": ["4", "5"]
                    }
                },
                "10": {
                    "cat": {
                        "data_source": "tracker",
                        "values": ["10"]
                    },
                    "source": {
                        "data_source": "tracker",
                        "values": ["3"]
                    }
                },
                "11": {
                    "cat": {
                        "data_source": "tracker",
                        "values": ["10"]
                    },
                    "source": {
                        "data_source": "tracker",
                        "values": ["2"]
                    }
                },
                "12": {
                    "cat": {
                        "data_source": "tracker",
                        "values": ["10"]
                    },
                    "source": {
                        "data_source": "tracker",
                        "values": ["1"]
                    }
                },
                "13": {
                    "cat": {
                        "data_source": "tracker",
                        "values": ["12"]
                    },
                    "source": {
                        "data_source": "tracker",
                        "values": ["6"]
                    }
                },
                "14": {
                    "cat": {
                        "data_source": "tracker",
                        "values": ["12"]
                    },
                    "source": {
                        "data_source": "tracker",
                        "values": ["4", "5"]
                    }
                },
                "16": {
                    "cat": {
                        "data_source": "tracker",
                        "values": ["12"]
                    },
                    "source": {
                        "data_source": "tracker",
                        "values": ["3"]
                    }
                },
                "17": {
                    "cat": {
                        "data_source": "tracker",
                        "values": ["12"]
                    },
                    "source": {
                        "data_source": "tracker",
                        "values": ["2"]
                    }
                },
                "18": {
                    "cat": {
                        "data_source": "tracker",
                        "values": ["12"]
                    },
                    "source": {
                        "data_source": "tracker",
                        "values": ["1"]
                    }
                }
            },
            "__comments__": {
                "1": "Movies: Encode x264",
                "43": "Movies: Encode HEVC",
                "2": "Movies: Remux",
                "48": "Movies: Remux HEVC",
                "3": "Movies: Blu-ray",
                "5": "Movies: WEB-DL",
                "6": "Movies: HDTV",
                "45": "Movies: Remux 3D  --- NOT POSSIBLE",
                "46": "Movies: Blu-ray 3D  --- NOT POSSIBLE",
                "44": "Movies: Encode 3D  --- NOT POSSIBLE",

                "7": "TV: HDTV",
                "8": "TV: WEB-DL",
                "10": "TV: Encode",
                "11": "TV: Remux",
                "12": "TV: Blu-ray",

                "13": "TV Season: HDTV",
                "14": "TV Season: WEB-DL",
                "16": "TV Season: Encode",
                "17": "TV Season: Remux",
                "18": "TV Season: Blu-ray",

                "_cat" : {
                    "data_source": "tracker",
                    "7": "movie",
                    "12": "complete_season",
                    "10": "individual_episodes"
                },
                "_source" : {
                    "data_source": "tracker",
                    "1":"full disc",
                    "2":"remux",
                    "3":"encode",
                    "4":"wedl",
                    "5":"webrip",
                    "6":"hdtv"
                },
                "_video_codec":{
                    "data_source": "torrent"
                }
            }
        }
    },


    "Required": {
        "file": "file",
        "name": "string",
        "screen":"string",
        "subcat":"hybrid_type",
        "url": "url",
        "sdescr": "string",
        "descr" : "string",

        "cat": {
            "7": "movie",
            "12": "complete_season",
            "10": "individual_episodes"
        },

        "source": {
            "1": {
                "disc": 1,
                "bluray_disc": 2,
                "dvd_disc": 2
            },
            "2": {
                "remux": 1,
                "bluray_remux": 2,
                "dvd_remux": 2
            },
            "3": {
                "bluray_encode": 1
            },
            "4": {
                "webdl": 1
            },
            "5": {
                "webrip": 1
            },
            "6": {
                "hdtv": 1
            }
        },

        "resolution": {
            "4": {
                "4360p": 2,
                "2160p": 2
            },
            "3": {
                "1080p": 1
            },
            "2": {
                "1080i": 1
            },
            "1": {
                "720p": 1
            }
        }
    },

    "Optional": {
        "nfo": "file",
        "mediainfo": "string"
    },

    "Default":{
        "format": "json"
    },

    "dupes": {

        "technical_jargons": {
            "authentication_mode": "HEADER",
            "headers": [
                {
                    "key": "X-API-KEY",
                    "value": "API_KEY"
                }
            ],
            "payload_type": "JSON",
            "request_method": "POST",
            "response_type": "JSON"
        },

        "strip_text": false,

        "payload":"{\"pageSize\": 100, \"search\": \"<imdb>\", \"searchType\": 4}",

        "parse_json": {
            "top_lvl": "data",
            "is_needed": true
        }
    },

    "torrent_title_format": {
        "episode": {
            "bluray_disc": "{title} {year} {s00e00} {screen_size} {region} {source} {dv} {hdr} {video_codec} {audio_codec} {audio_channels} {atmos} {release_group}",
            "bluray_remux": "{title} {year} {s00e00} {repack} {screen_size} {uhd} {hybrid} {source} {remux} {dv} {hdr} {video_codec} {audio_codec} {audio_channels} {atmos} {release_group}",
            "bluray_encode": "{title} {year} {s00e00} {repack} {screen_size} {uhd} {hybrid} {source} {audio_codec} {audio_channels} {atmos} {dv} {hdr} {video_codec} {release_group}",
            "web": "{title} {year} {s00e00} {repack} {screen_size} {web_source} {web_type} {audio_codec} {audio_channels} {atmos} {dv} {hdr} {video_codec} {release_group}",
            "hdtv": "{title} {year} {s00e00} {repack} {screen_size} {hybrid} {source} {audio_codec} {audio_channels} {video_codec} {release_group}",
            "dvd": "{title} {year} {s00e00} {edition} {repack} {screen_size} {region} {hybrid} {source} {video_codec} {remux} {audio_codec} {audio_channels} {atmos} {release_group}"
        },

        "movie": {
            "bluray_disc": "{title} {year} {edition} {repack} {screen_size} {region} {source} {dv} {hdr} {video_codec} {audio_codec} {audio_channels} {atmos} {release_group}",
            "bluray_remux": "{title} {year} {edition} {repack} {screen_size} {uhd} {hybrid} {source} {remux} {dv} {hdr} {video_codec} {audio_codec} {audio_channels} {atmos} {release_group}",
            "bluray_encode": "{title} {year} {edition} {repack} {screen_size} {uhd} {hybrid} {source} {audio_codec} {audio_channels} {atmos} {dv} {hdr} {video_codec} {release_group}",
            "web": "{title} {year} {edition} {repack} {screen_size} {hybrid} {web_source} {web_type} {audio_codec} {audio_channels} {atmos} {dv} {hdr} {video_codec} {release_group}",
            "hdtv": "{title} {year} {edition} {repack} {screen_size} {hybrid} {source} {audio_codec} {audio_channels} {atmos} {video_codec} {release_group}",
            "dvd": "{title} {year} {edition} {repack} {screen_size} {region} {hybrid} {source} {video_codec} {remux} {audio_codec} {audio_channels} {atmos} {release_group}"
        }
    },

    "torrent_title_translation" : {
        "DD+" : "DDP",
        "HDR10+" : "HDR10Plus",
        "DTS:X": "DTS-X",
        ":":"",
        "?":""
    },

    "banned_groups": [
        "AROMA",
        "aXXo",
        "BRrip",
        "CM8",
        "CrEwSaDe",
        "d3g",
        "DNL",
        "FGT",
        "FaNGDiNG0",
        "FRDS",
        "HD2DVD",
        "HDTime",
        "iPlanet",
        "KiNGDOM",
        "Leffe",
        "MeGusta",
        "mHD",
        "mSD",
        "nHD",
        "nikt0",
        "nSD",
        "NhaNc3",
        "PRODJi",
        "RDN",
        "SANTi",
        "STUTTERSHIT",
        "Telly",
        "ViSION",
        "WAF",
        "x0r",
        "YIFY"
    ]
}
