{
    "name": "DesiTorrents",
    "url": "https://desitorrents.rocks",
    "upload_form": "https://desitorrents.rocks/api/torrents/upload?api_token={api_key}",
    "torrents_search": "https://desitorrents.rocks/api/torrents/filter?api_token={api_key}",
    "source": "DesiTorrents",
    "platform": "UNIT3D",
    "bbcode_line_break": "\n",
    "title_separator" : " ",
    "screenshot_type": "bbcode_images",

    "description_components":{
        "code_code": "[code][/code]",
        "spoiler_code":"[spoiler=TITLE_PLACEHOLDER][/spoiler]",
        "notes_code":"[note][/note]",
        "quote_code":"[quote][/quote]",
        "alert_code":"[alert][/alert]"
    },

    "technical_jargons": {
        "authentication_mode": "API_KEY",
        "response_type": "JSON",
        "payload_type": "MULTI-PART"
    },

    "hybrid_mappings": {
    },

    "translation": {
        "dot_torrent": "torrent",
        "torrent_title": "name",
        "description": "description",
        "mediainfo": "mediainfo",
        "bdinfo": "bdinfo",
        "type": "category_id",
        "source": "type_id",
        "resolution": "resolution_id",
        "tmdb": "tmdb",
        "imdb": "imdb",
        "tvdb": "tvdb",
        "mal": "mal",
        "igdb": "igdb",
        "anon": "anonymous",
        "live": "live",
        "sd": "sd",
        "optimized": "stream",
        "nfo_file": "nfo",
        "season_number": "season_number",
        "episode_number": "episode_number",

        "internal": "internal",
        "featured": "featured",
        "doubleup": "doubleup",
        "sticky": "sticky",
        "freeleech": "free"
    },

    "Required": {
        "torrent": "file",
        "name": "string",
        "description": "string",
        "anonymous": "string",
        "sd": "string",
        "stream": "string",
        "tvdb": "string",
        "tmdb": "string",
        "imdb": "string",
        "mal": "string",
        "igdb": "string",


        "internal": "string",
        "free": "string",
        "featured": "string",
        "doubleup": "string",
        "sticky": "string",

        "category_id": {
            "1": "movie",
            "2": "episode"
        },

        "_comment0": "Explanation for type_ids",
        "_comment1": "3 => BD 50",
        "_comment2": "4 => BD 25",
        "_comment3": "2 => UHD Remux",
        "_comment4": "5 => BD Remux",
        "_comment5": "1 => UHD",
        "_comment6": "8 => DVD Remux",
        "_comment7": "13 => Other",

        "type_id": {

            "3": {
                "bluray_disc": 1,
                "bd_50": 1,
                "1080p": 2,
                "1080i": 2
            },
            "4": {
                "bluray_disc": 1,
                "bd_25": 1,
                "1080p": 2,
                "1080i": 2
            },
            "2": {
                "bluray_remux": 1,
                "2160p": 1
            },
            "5": {
                "bluray_remux": 1,
                "1080p": 2,
                "1080i": 2
            },
            "1": {
                "2160p": 1,
                "bluray_encode": 2,
                "webdl": 2,
                "webrip": 2
            },
            "8": {
                "dvd": 1,
                "576p": 2,
                "540p": 2,
                "480p": 2
            },
            "12": {
                "bluray_encode": 1
            },
            "11": {
                "webdl": 2,
                "webrip": 2
            },
            "13": {
                "hdtv": 0,
                "other": 0
            }
        },


        "resolution_id": {
            "9": {
                "4360p": 1
            },

            "8": {
                "2160p": 1
            },

            "11": {
                "1080p": 1
            },

            "7": {
                "1080i": 1
            },

            "6": {
                "720p": 1
            },

            "5": {
                "720i": 1
            },

            "4": {
                "576p": 1
            },

            "3": {
                "576i": 1
            },

            "12": {
                "540p": 1
            },

            "2": {
                "480p": 1
            },

            "1": {
                "480i": 1
            },

            "10": {
                "other": 1
            }

        }
    },

    "Optional": {
        "nfo_file": "file",
        "season_number": "string",
        "episode_number": "string",

        "bdinfo": "string",
        "mediainfo": "string"
    },

    "Default":{},

    "dupes": {
        "technical_jargons": {
            "authentication_mode": "API_KEY",
            "payload_type": "MULTI-PART",
            "request_method": "GET",
            "response_type": "JSON"
        },

        "url_format": "{search_url}&imdbId={imdb}",
        "strip_text": true,

        "parse_json": {
            "is_needed": true,
            "top_lvl": "data",
            "torrent_details": "attributes"
        }
    },

    "torrent_title_format": {
        "episode": {
            "bluray_disc": "{title} {year} {s00e00} {screen_size} {region} {source} {dv} {hdr} {video_codec} {audio_codec} {audio_channels} {atmos} {release_group}",
            "bluray_remux": "{title} {year} {s00e00} {repack} {screen_size} {uhd} {hybrid} {source} {remux} {dv} {hdr} {video_codec} {multiaudio} {audio_codec} {audio_channels} {atmos} {release_group}",
            "bluray_encode": "{title} {year} {s00e00} {repack} {screen_size} {uhd} {hybrid} {source} {multiaudio} {audio_codec} {audio_channels} {atmos} {dv} {hdr} {video_codec} {release_group}",
            "web": "{title} {year} {s00e00} {repack} {screen_size} {web_source} {web_type} {multiaudio} {audio_codec} {audio_channels} {atmos} {dv} {hdr} {video_codec} {release_group}",
            "hdtv": "{title} {year} {s00e00} {repack} {screen_size} {hybrid} {source} {multiaudio} {audio_codec} {audio_channels} {video_codec} {release_group}",
            "dvd": "{title} {year} {s00e00} {edition} {repack} {screen_size} {region} {hybrid} {source} {video_codec} {remux} {multiaudio} {audio_codec} {audio_channels} {atmos} {release_group}"
        },

        "movie": {
            "bluray_disc": "{title} {year} {edition} {repack} {screen_size} {region} {source} {dv} {hdr} {video_codec} {audio_codec} {audio_channels} {atmos} {release_group}",
            "bluray_remux": "{title} {year} {edition} {repack} {screen_size} {uhd} {hybrid} {source} {remux} {dv} {hdr} {video_codec} {multiaudio} {audio_codec} {audio_channels} {atmos} {release_group}",
            "bluray_encode": "{title} {year} {edition} {repack} {screen_size} {uhd} {hybrid} {source} {multiaudio} {audio_codec} {audio_channels} {atmos} {dv} {hdr} {video_codec} {release_group}",
            "web": "{title} {year} {edition} {repack} {screen_size} {hybrid} {web_source} {web_type} {multiaudio} {audio_codec} {audio_channels} {atmos} {dv} {hdr} {video_codec} {release_group}",
            "hdtv": "{title} {year} {edition} {repack} {screen_size} {hybrid} {source} {multiaudio} {audio_codec} {audio_channels} {atmos} {video_codec} {release_group}",
            "dvd": "{title} {year} {edition} {repack} {screen_size} {region} {hybrid} {source} {video_codec} {remux} {multiaudio} {audio_codec} {audio_channels} {atmos} {release_group}"
        }
    },
    "banned_groups": [
        "DusIcTv",
        "DusICTV",
        "PHDM",
        "PDHM",
        "Ranvijay",
        "BWT",
        "DDH",
        "Telly",
        "YTS",
        "RARBG",
        "BonsaiHD",
        "GalaxyRG",
        "-=!DrSTAR!=-"
    ]
}
