{
    "name": "ReelFliX",
    "url": "https://reelflix.xyz",
    "upload_form": "https://reelflix.xyz/api/torrents/upload?api_token={api_key}",
    "torrents_search": "https://reelflix.xyz/api/torrents/filter?api_token={api_key}",
    "source": "ReelFliX",
    "platform": "UNIT3D",
    "bbcode_line_break": "\n",
    "title_separator" : " ",
    "screenshot_type": "bbcode_images",

    "description_components":{
        "code_code": "[code][/code]",
        "spoiler_code":"[spoiler=TITLE_PLACEHOLDER][/spoiler]",
        "notes_code":"[note][/note]",
        "quote_code":"[quote][/quote]",
        "alert_code":"[alert][/alert]"
    },

    "technical_jargons": {
        "authentication_mode": "API_KEY",
        "response_type": "JSON",
        "payload_type": "MULTI-PART"
    },

    "hybrid_mappings": {
    },

    "translation": {
        "torrent_title": "name",
        "description": "description",
        "dot_torrent": "torrent",
        "mediainfo": "mediainfo",
        "bdinfo": "bdinfo",
        "type": "category_id",
        "source": "type_id",
        "resolution": "resolution_id",
        "tmdb": "tmdb",
        "imdb": "imdb",
        "anon": "anonymous",
        "live": "live",
        "sd": "sd",
        "tvdb": "tvdb",
        "mal": "mal",
        "igdb": "igdb",
        "optimized": "stream",
        "nfo_file": "nfo",
        "internal": "internal",
        "featured": "featured",
        "doubleup": "doubleup",
        "sticky": "sticky",
        "freeleech": "free"
    },

    "Required": {
        "torrent": "file",
        "name": "string",
        "description": "string",
        "anonymous": "string",
        "sd": "string",
        "stream": "string",
        "tvdb": "string",
        "tmdb": "string",
        "imdb": "string",
        "mal": "string",
        "igdb": "string",

        "internal": "string",
        "free": "string",
        "featured": "string",
        "doubleup": "string",
        "sticky": "string",

        "category_id": {
            "1": "movie"
        },

        "type_id": {
            "43": {
                "disc": 1,
                "bluray_disc": 2,
                "dvd_disc": 2
            },
            "40": {
                "remux": 1,
                "bluray_remux": 2,
                "dvd_remux": 2
            },
            "41": {
                "bluray_encode": 1
            },
            "42": {
                "webdl": 1
            },
            "45": {
                "webrip": 1
            },
            "35": {
                "hdtv": 1
            }
        },

        "resolution_id": {
            "1": {
                "4360p": 1
            },
            "2": {
                "2160p": 1
            },
            "3": {
                "1080p": 1
            },
            "4": {
                "1080i": 1
            },
            "5": {
                "720p": 1
            },
            "6": {
                "576p": 1
            },
            "7": {
                "576i": 1
            },
            "8": {
                "480p": 1
            },
            "9": {
                "480i": 1
            },
            "10": {
                "other": 1
            }
        }
    },

    "Optional": {
        "nfo_file": "file",
        "season_number": "string",
        "episode_number": "string",

        "bdinfo": "string",
        "mediainfo": "string"
    },

    "Default":{},

    "dupes": {

        "technical_jargons": {
            "authentication_mode": "API_KEY",
            "payload_type": "MULTI-PART",
            "request_method": "GET",
            "response_type": "JSON"
        },

        "url_format": "{search_url}&imdbId={imdb}",
        "strip_text": true,

        "parse_json": {
            "is_needed": true,
            "top_lvl": "data",
            "torrent_details": "attributes"
        }
    },

    "torrent_title_format": {
        "episode": {
            "bluray_disc": "{title} {year} {s00e00} {screen_size} {region} {source} {dv} {hdr} {video_codec} {audio_codec} {audio_channels} {atmos} {release_group}",
            "bluray_remux": "{title} {year} {s00e00} {repack} {screen_size} {uhd} {hybrid} {source} {remux} {dv} {hdr} {video_codec} {audio_codec} {audio_channels} {atmos} {release_group}",
            "bluray_encode": "{title} {year} {s00e00} {repack} {screen_size} {uhd} {hybrid} {source} {audio_codec} {audio_channels} {atmos} {dv} {hdr} {video_codec} {release_group}",
            "web": "{title} {year} {s00e00} {repack} {screen_size} {web_source} {web_type} {audio_codec} {audio_channels} {atmos} {dv} {hdr} {video_codec} {release_group}",
            "hdtv": "{title} {year} {s00e00} {repack} {screen_size} {hybrid} {source} {audio_codec} {audio_channels} {video_codec} {release_group}",
            "dvd": "{title} {year} {s00e00} {edition} {repack} {screen_size} {region} {hybrid} {source} {video_codec} {remux} {audio_codec} {audio_channels} {atmos} {release_group}"
        },

        "movie": {
            "bluray_disc": "{title} {year} {edition} {repack} {screen_size} {region} {source} {dv} {hdr} {video_codec} {audio_codec} {audio_channels} {atmos} {release_group}",
            "bluray_remux": "{title} {year} {edition} {repack} {screen_size} {uhd} {hybrid} {source} {remux} {dv} {hdr} {video_codec} {audio_codec} {audio_channels} {atmos} {release_group}",
            "bluray_encode": "{title} {year} {edition} {repack} {screen_size} {uhd} {hybrid} {source} {audio_codec} {audio_channels} {atmos} {dv} {hdr} {video_codec} {release_group}",
            "web": "{title} {year} {edition} {repack} {screen_size} {hybrid} {web_source} {web_type} {audio_codec} {audio_channels} {atmos} {dv} {hdr} {video_codec} {release_group}",
            "hdtv": "{title} {year} {edition} {repack} {screen_size} {hybrid} {source} {audio_codec} {audio_channels} {atmos} {video_codec} {release_group}",
            "dvd": "{title} {year} {edition} {repack} {screen_size} {region} {hybrid} {source} {video_codec} {remux} {audio_codec} {audio_channels} {atmos} {release_group}"
        }
    },

    "banned_groups": [
        "AROMA",
        "aXXo",
        "BRrip",
        "CM8",
        "CrEwSaDe",
        "d3g",
        "DNL",
        "FGT",
        "FaNGDiNG0",
        "FRDS",
        "HD2DVD",
        "HDTime",
        "iPlanet",
        "KiNGDOM",
        "Leffe",
        "MeGusta",
        "mHD",
        "mSD",
        "nHD",
        "nikt0",
        "nSD",
        "NhaNc3",
        "PRODJi",
        "RDN",
        "SANTi",
        "STUTTERSHIT",
        "ViSION",
        "WAF",
        "x0r",
        "YIFY"
    ]
}